{
  "manifest": {
    "apis": {
      "custom": {
        "endpoint": {
          "uri": "arn:aws:lambda:us-east-1:748264854704:function:29f95b25-2a72-49c1-81fd-bf71414a2923:Release_0"
        },
        "interfaces": []
      }
    },
    "manifestVersion": "1.0",
    "privacyAndCompliance": {
      "locales": {
        "en-US": {}
      },
      "allowsPurchases": false,
      "usesPersonalInfo": false,
      "isChildDirected": false,
      "isExportCompliant": true,
      "containsAds": false
    },
    "publishingInformation": {
      "locales": {
        "en-US": {
          "name": "Hotwheels Homework 1",
          "summary": "The first homework for Cloud Computing.",
          "description": "First homework for Cloud Computing. Answers questions about team.",
          "examplePhrases": [
            "Alexa, open hot wheels.",
            "Who are the team members?"
          ],
          "keywords": []
        }
      },
      "isAvailableWorldwide": true,
      "testingInstructions": "Sample Testing Instructions.",
      "category": "KNOWLEDGE_AND_TRIVIA",
      "distributionCountries": []
    }
  }
}